{
  "collectionName": "components_description_stack_items",
  "info": {
    "name": "stack_item",
    "icon": "ankh"
  },
  "options": {},
  "attributes": {
    "title": {
      "type": "string"
    }
  }
}
